astroid==1.5.3
certifi==2017.11.5
chardet==3.0.4
colorama==0.3.9
coreapi==2.3.3
coreschema==0.0.4
Django==1.11.5
django-braces==1.11.0
django-datatables-view==1.14.0
django-filter==1.1.0
django-jenkins==0.110.0
django-recaptcha==1.3.1
django-rest-swagger==2.1.2
djangorestframework==3.6.4
djangorestframework-filters==0.10.2
djangorestframework-jwt==1.11.0
django-dynamic-preferences==1.5.1
Faker==0.7.3
idna==2.6
isort==4.2.15
itypes==1.1.0
Jinja2==2.9.6
lazy-object-proxy==1.3.1
logutils==0.3.5
MarkupSafe
mccabe==0.6.1
mixer==5.6.6
olefile==0.44
openapi-codec==1.3.2
pep8==1.7.0
Pillow==4.0.0
psycopg2==2.7.3.1
py==1.4.34
PyJWT==1.5.3
pylint==1.7.4
pylint-django==0.7.2
pylint-plugin-utils==0.2.6
pytest==3.2.3
pytest-base-url==1.4.1
pytest-cov==2.5.1
pytest-django==3.1.2
pytest-html==1.16.0
pytest-metadata==1.5.0
#pytest-selenium==1.11.1
pytest-variables==1.7.0
python-dateutil==2.6.1
pytz==2017.2
requests==2.18.4
#selenium==3.7.0
simplejson==3.12.0
six==1.11.0
uritemplate==3.0.0
urllib3==1.22
wrapt==1.10.11

#notificaciones
asgi-redis==1.0.0
daphne==0.12.1
channels==1.0.2
redis==2.10.6
